…
## Exercise 2 - Cleaning `nair_raw.tsv`

In the Head and the Summary, some columns that should be integers or
doubles are marked with `chr` implying they are characters or string
data instead.

``` r
tsv_data %>%
  group_by(`tmax (degC)`) %>%
  count()
```

    ## # A tibble: 245 x 2
    ## # Groups:   tmax (degC) [245]
    ##    `tmax (degC)`     n
    ##    <chr>         <int>
    ##  1 ---              18
    ##  2 10                7
    ##  3 10.1              7
    ##  4 10.1*             1
    ##  5 10.2              4
    ##  6 10.3              3
    ##  7 10.4             11
    ##  8 10.4*             2
    ##  9 10.5              6
    ## 10 10.5*             1
    ## # ... with 235 more rows

``` r
tsv_data %>%
  group_by(`tmin (degC)`) %>%
  count()
```

    ## # A tibble: 218 x 2
    ## # Groups:   tmin (degC) [218]
    ##    `tmin (degC)`     n
    ##    <chr>         <int>
    ##  1 ---              23
    ##  2 -0.1              5
    ##  3 -0.2              4
    ##  4 -0.3             10
    ##  5 -0.4              2
    ##  6 -0.4*             1
    ##  7 -0.5              6
    ##  8 -0.6             10
    ##  9 -0.7              4
    ## 10 -0.8              2
    ## # ... with 208 more rows

``` r
tsv_data %>%
  group_by(`af (days)`) %>%
  count()
```

    ## # A tibble: 45 x 2
    ## # Groups:   af (days) [45]
    ##    `af (days)`     n
    ##    <chr>       <int>
    ##  1 ---            14
    ##  2 0             406
    ##  3 0*             28
    ##  4 1              66
    ##  5 1*             11
    ##  6 10             21
    ##  7 10*             5
    ##  8 11             20
    ##  9 11*             3
    ## 10 12             15
    ## # ... with 35 more rows

``` r
tsv_data %>%
  group_by(`rain (mm)`) %>%
  count()
```

    ## # A tibble: 687 x 2
    ## # Groups:   rain (mm) [687]
    ##    `rain (mm)`     n
    ##    <chr>       <int>
    ##  1 ---             8
    ##  2 10.2            1
    ##  3 10.4            1
    ##  4 10.7            1
    ##  5 10.9            1
    ##  6 100             1
    ##  7 100.6           1
    ##  8 101             1
    ##  9 101.1           1
    ## 10 101.2           1
    ## # ... with 677 more rows

``` r
tsv_data %>%
  group_by(`sun (hours)`) %>%
  count()
```

    ## # A tibble: 834 x 2
    ## # Groups:   sun (hours) [834]
    ##    `sun (hours)`     n
    ##    <chr>         <int>
    ##  1 ---              24
    ##  2 100               2
    ##  3 100.2             3
    ##  4 100.4             2
    ##  5 100.5             2
    ##  6 100.6             1
    ##  7 100.7             1
    ##  8 101               2
    ##  9 101.2             1
    ## 10 101.4             1
    ## # ... with 824 more rows
…
