…
winners_sal
```

    ## # A tibble: 32 x 3
    ##    yearID mean_sal   sum_sal
    ##     <int>    <dbl>     <dbl>
    ##  1   1985  474208. 247536802
    ##  2   1986  413861. 293427260
    ##  3   1987  432886. 259731876
    ##  4   1988  454339. 288505036
    ##  5   1989  503501. 344897878
    ##  6   1990  507405. 422161193
    ##  7   1991  886832. 579988417
    ##  8   1992 1043023. 770793989
    ##  9   1993  979968. 873151800
    ## 10   1994 1059484. 902680069
    ## # ... with 22 more rows
…
