…
    # A tibble: 6 x 6
      station `tmax (degC)` `tmin (degC)` `af (days)` `rain (mm)` `sun (hours)`
      <chr>           <dbl>         <dbl>       <dbl>       <dbl>         <dbl>
    1 Braemar           1.7          -5.7          27          NA          34.2
    2 Braemar           6.2          -3.2          15          NA          68.6
    3 Braemar           7.6           0.8           7          NA          80.9
    4 Braemar          NA            NA            NA          NA         105  
    5 Braemar          15.6           4.6           1          NA         183. 
    6 Braemar          16.4           7.2           0          NA         165. 

## Exerecise 3 - Optional: From Jane Austin’s Library Selecting Character, a Year, a year but within the text of the novel.

    [1] "Lines that contain 'Darcy':"

    # A tibble: 415 x 2
       text                                                           book          
       <chr>                                                          <fct>         
     1 "looked the gentleman; but his friend Mr. Darcy soon drew the~ Pride & Preju~
     2 "themselves. What a contrast between him and his friend! Mr. ~ Pride & Preju~
     3 "down for two dances; and during part of that time, Mr. Darcy~ Pride & Preju~
     4 "\"Come, Darcy,\" said he, \"I must have you dance. I hate to~ Pride & Preju~
     5 "Darcy, looking at the eldest Miss Bennet."                    Pride & Preju~
     6 "Mr. Bingley followed his advice. Mr. Darcy walked off; and E~ Pride & Preju~
     7 "exaggeration, the shocking rudeness of Mr. Darcy."            Pride & Preju~
     8 "Between him and Darcy there was a very steady friendship, in~ Pride & Preju~
     9 "great opposition of character. Bingley was endeared to Darcy~ Pride & Preju~
    10 "never appeared dissatisfied. On the strength of Darcy's rega~ Pride & Preju~
    # ... with 405 more rows
…
