…
    ## Warning in lapply(X = X, FUN = FUN, ...): NAs introduced by coercion
    
    ## Warning in lapply(X = X, FUN = FUN, ...): NAs introduced by coercion
    
    ## Warning in lapply(X = X, FUN = FUN, ...): NAs introduced by coercion
    
    ## Warning in lapply(X = X, FUN = FUN, ...): NAs introduced by coercion

``` r
nairn %>%
  group_by(`tmax (degC)`) %>%
  count()
```

    ## # A tibble: 179 x 2
    ## # Groups:   tmax (degC) [179]
    ##    `tmax (degC)`     n
    ##            <dbl> <int>
    ##  1           2.2     1
    ##  2           2.4     1
    ##  3           2.7     1
    ##  4           3       2
    ##  5           3.1     2
    ##  6           3.2     1
    ##  7           3.3     2
    ##  8           3.4     3
    ##  9           3.5     1
    ## 10           3.6     1
    ## # ... with 169 more rows
…
    ## Warning in lapply(X = X, FUN = FUN, ...): NAs introduced by coercion
    
    ## Warning in lapply(X = X, FUN = FUN, ...): NAs introduced by coercion
    
    ## Warning in lapply(X = X, FUN = FUN, ...): NAs introduced by coercion
    
    ## Warning in lapply(X = X, FUN = FUN, ...): NAs introduced by coercion

``` r
nairn2 %>%
  group_by(`tmax (degC)`) %>%
  count()
```

    ## # A tibble: 179 x 2
    ## # Groups:   tmax (degC) [179]
    ##    `tmax (degC)`     n
    ##            <dbl> <int>
    ##  1           2.2     1
    ##  2           2.4     1
    ##  3           2.7     1
    ##  4           3       2
    ##  5           3.1     2
    ##  6           3.2     1
    ##  7           3.3     2
    ##  8           3.4     3
    ##  9           3.5     1
    ## 10           3.6     1
    ## # ... with 169 more rows
…
    ## Warning in lapply(X = X, FUN = FUN, ...): NAs introduced by coercion
    
    ## Warning in lapply(X = X, FUN = FUN, ...): NAs introduced by coercion
    
    ## Warning in lapply(X = X, FUN = FUN, ...): NAs introduced by coercion
    
    ## Warning in lapply(X = X, FUN = FUN, ...): NAs introduced by coercion

``` r
nairn3 %>%
  group_by(`tmax (degC)`) %>%
  count()
```

    ## # A tibble: 179 x 2
    ## # Groups:   tmax (degC) [179]
    ##    `tmax (degC)`     n
    ##            <dbl> <int>
    ##  1           2.2     1
    ##  2           2.4     1
    ##  3           2.7     1
    ##  4           3       2
    ##  5           3.1     2
    ##  6           3.2     1
    ##  7           3.3     2
    ##  8           3.4     3
    ##  9           3.5     1
    ## 10           3.6     1
    ## # ... with 169 more rows
…
    ## Warning in lapply(X = X, FUN = FUN, ...): NAs introduced by coercion
    
    ## Warning in lapply(X = X, FUN = FUN, ...): NAs introduced by coercion
    
    ## Warning in lapply(X = X, FUN = FUN, ...): NAs introduced by coercion
    
    ## Warning in lapply(X = X, FUN = FUN, ...): NAs introduced by coercion

``` r
dunstaffnage %>%
  group_by(`tmax (degC)`) %>%
  count()
```

    ## # A tibble: 150 x 2
    ## # Groups:   tmax (degC) [150]
    ##    `tmax (degC)`     n
    ##            <dbl> <int>
    ##  1           4.2     2
    ##  2           4.3     1
    ##  3           4.4     1
    ##  4           4.6     1
    ##  5           4.9     1
    ##  6           5       1
    ##  7           5.3     4
    ##  8           5.5     1
    ##  9           5.6     1
    ## 10           5.7     2
    ## # ... with 140 more rows
…
